﻿{
  "grid": {
    "size": 4,
    "tiles": [
      [ null, null, null, null ],
      [
        null,
        null,
        null,
        {
          "position": {
            "x": 1,
            "y": 3
          },
          "value": 2,
          "mergedFrom": null
        }
      ],
      [ null, null, null, null ],
      [
        null,
        null,
        null,
        {
          "position": {
            "x": 3,
            "y": 3
          },
          "value": 2,
          "mergedFrom": null
        }
      ]
    ]
  },
  "score": 0,
  "bestScore": 0,
  "over": false,
  "won": false,
  "keepPlaying": false
}